{
    "development": {
        "PORT": 3000,
        "MONGODB_URI": "mongodb://localhost:27017/MEANStackDB",
        "JWT_SECRET": "SECRET#123",
        "JWT_EXP": "10h"
    },
    "production": {
        "PORT": 80,
        "MONGODB_URI": "mongodb://xxxxx/DB_Name",
        "JWT_SECRET": "SECRET#123",
        "JWT_EXP": "2h"
    }
}